[gd_scene load_steps=2 format=2]

[ext_resource path="res://scripts/event_bus.gd" type="Script" id=1]

[node name="EventBus" type="Node" index="0"]

pause_mode = 2
script = ExtResource( 1 )
_sections_unfolded = [ "Pause" ]


