[gd_scene load_steps=2 format=2]

[ext_resource path="res://scripts/settings.gd" type="Script" id=1]

[node name="Settings" type="Node" index="0"]

script = ExtResource( 1 )
settings_file = "user://settings.cfg"


