,en,hr
MAIN_MENU_EXIT_GAME,"Exit Game","Izlaz iz igre"
MAIN_MENU_MAP_EDITOR,"Map Editor","Editor mape"
MAP_EDITOR_FILE,"File","Datoteka"
MAP_EDITOR_FILE_QUIT_EDITOR,"Quit Editor","Izlaz iz editora"
MAP_EDITOR_FILE_EXIT_GAME,"Exit Game","Izlaz iz igre"
MAIN_MENU_ABOUT,"About","O igri"
ABOUT_DIALOG_TITLE,"Title:","Naziv:"
ABOUT_DIALOG_AUTHOR,"Author:","Autor:"
ABOUT_DIALOG_VERSION,"Version:","Verzija:"
ABOUT_DIALOG_DATE,"Date:","Datum:"
ABOUT_DIALOG_DATA_DIRECTORY,"Data Directory:","Podatkovni direktorij:"
ABOUT_DIALOG_CLOSE,"Close","Zatvori"
MAP_EDITOR_VIEW,"View","Pogled"
MAP_EDITOR_VIEW_SHOW_GRID,"Show Grid","Prikaži mrežu"
MAP_EDITOR_FILE_NEW_MAP,"New Map","Nova mapa"
MAP_EDITOR_VIEW_RESET_CAMERA,"Reset Camera","Resetiraj kameru"
MAP_EDITOR_FILE_SAVE_MAP,"Save Map","Pohrani mapu"
MAP_EDITOR_FILE_SAVE_MAP_AS,"Save Map As","Pohrani mapu kao"
MAP_EDITOR_FILE_LOAD_MAP,"Load Map","Učitaj mapu"
MAP_EDITOR_LOAD_MAP_INVALID_FILE_TEXT,"File %s doesn't contain valid map data.","Datoteka %s ne sadrži validne podatke o mapi."
MAP_EDITOR_LOAD_MAP_INVALID_FILE_TITLE,"Error loading map file","Greška prilikom učitavanja mape"
MAIN_MENU_LANGUAGE,"Language","Jezik"
LANGUAGE_DIALOG_TITLE,"Choose prefered language","Izaberi jezik"
LANGUAGE_DIALOG_CONFIRM,"Confirm","Potvrdi"
LANGUAGE_DIALOG_CANCEL,"Cancel","Odustani"
"Save a File","Save a File","Pohrani datoteku"
"File Exists, Overwrite?","File Exists, Overwrite?","Datoteka već postoji. Pregaziti?"
"Open","Open","Otvori"
"Select Current Folder","Select Current Folder","Odaberi trenutni direktorij"
"Select This Folder","Select This Folder","Odaberi ovaj direktorij"
"All Recognized","All Recognized","Sve prepoznate"
"All Files (*)","All Files (*)","Sve datoteke (*)"
"Open a File","Open a File","Otvori datoteku"
"Open File(s)","Open File(s)","Otvori datoteke"
"Open a Directory","Open a Directory","Otvori direktorij"
"Open a File or Directory","Open a File or Directory","Otvori datoteku ili direktorij"
"Save","Save","Pohrani"
"Go to parent folder","Go to parent folder","Idi u direktorij iznad"
"Path:","Path:","Putanja:"
"Create Folder","Create Folder","Kreiraj direktorij"
"Directories & Files:","Directories & Files:","Direktoriji i datoteke:"
"File:","File:","Datoteka:"
"Name:","Name:","Naziv:"
"Could not create folder.","Could not create folder.","Nije moguće kreirati direktorij."
"Must use a valid extension.","Must use a valid extension.","Moguće je koristiti samo validnu ekstenziju."
"Cancel","Cancel","Odustani"
"Please Confirm...","Please Confirm...","Molim potvrdi..."
"OK","OK","U redu"
"Cut","Cut","Izreži"
"Copy","Copy","Kopiraj"
"Paste","Paste","Zalijepi"
"Select All","Select All","Označi sve"
"Clear","Clear","Očisti"
"Undo","Undo","Poništiti"
"Redo","Redo","Ponoviti poništeno"
NEW_MAP_DIALOG_TITLE,"New map","Nova mapa"
NEW_MAP_DIALOG_WIDTH,"Width:","Širina:"
NEW_MAP_DIALOG_HEIGHT,"Height:","Visina:"
NEW_MAP_DIALOG_CREATE,"Create","Kreiraj"
NEW_MAP_DIALOG_CANCEL,"Cancel","Odustani"
MAP_EDITOR_TOOLS,"Tools","Alati"
MAP_EDITOR_TOOLS_TAKE_SCREENSHOT,"Take Screenshot","Uzmi sliku ekrana"
MAP_EDITOR_FILE_LABEL,"Map:","Mapa:"